AlexWeinreb - Most studied worm neuronal genes
…
The first step is to read the data into R, we also rename the columns for names that are easier to work with. And if you look through the data, you may notice a number of genes do not have references associated (marked as “N.A.”), we need to ensure this is registered correctly.

suppressPackageStartupMessages(library(tidyverse))

simplemine_results <- read_tsv("data/simplemine_results.txt",
                               col_types = "ccccc",
                               na = "N.A.") |>
  select(gene_id = `WormBase Gene ID`,
         gene_name = `Public Name`,
         expr_pattern = `Expr_pattern Tissue`,
         references = Reference)

simplemine_results

# A tibble: 49,541 × 4
   gene_id        gene_name expr_pattern                              references
   <chr>          <chr>     <chr>                                     <chr>     
 1 WBGene00000001 aap-1     body wall musculature, hypodermis, intes… WBPaper00…
 2 WBGene00000002 aat-1     excretory cell, excretory gland cell, go… WBPaper00…
 3 WBGene00000003 aat-2     <NA>                                      WBPaper00…
 4 WBGene00000004 aat-3     <NA>                                      WBPaper00…
 5 WBGene00000005 aat-4     <NA>                                      WBPaper00…
 6 WBGene00000006 aat-5     <NA>                                      WBPaper00…
 7 WBGene00000007 aat-6     intestine                                 WBPaper00…
 8 WBGene00000008 aat-7     <NA>                                      WBPaper00…
 9 WBGene00000009 aat-8     <NA>                                      WBPaper00…
10 WBGene00000010 aat-9     body wall musculature, neuron             WBPaper00…
# ℹ 49,531 more rows

In this format, the references are all packed in a single long string. We can count how many there are by relying on the consistent format. We just need to handle the case of references being “NA”. R would interpret it as “some unknown number of references”, but we know this actually means “no reference”.

papers_per_gene <- simplemine_results |>
  mutate(nb_papers = str_count(references, "WBPaper\\d{8}"),
         nb_papers = if_else(is.na(references), 0, nb_papers)) |>
  arrange(desc(nb_papers))

papers_per_gene

# A tibble: 49,541 × 5
   gene_id        gene_name expr_pattern                    references nb_papers
   <chr>          <chr>     <chr>                           <chr>          <dbl>
 1 WBGene00000912 daf-16    AIYL, AIYR, anterior distal ti… WBPaper00…      1675
 2 WBGene00000898 daf-2     ADFL, ADFR, amphid neuron, ASH… WBPaper00…      1543
 3 WBGene00001609 glp-1     AB, AB lineage cell, ABa, ABal… WBPaper00…       838
 4 WBGene00000417 ced-3     ABaraapapaa, ABaraapapaad, ABa… WBPaper00…       724
 5 WBGene00004804 skn-1     AB, ABa, ABp, AIYL, AIYR, ante… WBPaper00…       695
 6 WBGene00003001 lin-12    ABplaaa, ABplpapp, ccDL, ccDR,… WBPaper00…       685
 7 WBGene00000090 age-1     accessory cell, amphid neuron,… WBPaper00…       595
 8 WBGene00002335 let-60    AIMR, AIYR, anchor cell, anter… WBPaper00…       566
 9 WBGene00006789 unc-54    anal depressor muscle, anal sp… WBPaper00…       562
10 WBGene00000418 ced-4     anal sphincter muscle, apoptot… WBPaper00…       502
# ℹ 49,531 more rows
…
